[gd_scene load_steps=13 format=2]

[ext_resource path="res://player.tscn" type="PackedScene" id=1]
[ext_resource path="res://mob.tscn" type="PackedScene" id=2]
[ext_resource path="res://main.gd" type="Script" id=3]
[ext_resource path="res://scorelabel.gd" type="Script" id=4]
[ext_resource path="res://fonts/Montserrat-Medium.ttf" type="DynamicFontData" id=5]

[sub_resource type="BoxShape" id=1]
extents = Vector3( 30, 1, 30 )

[sub_resource type="CubeMesh" id=2]
size = Vector3( 60, 2, 60 )

[sub_resource type="CylinderMesh" id=3]

[sub_resource type="SpatialMaterial" id=4]
albedo_color = Color( 1, 0.701961, 0, 1 )

[sub_resource type="Curve3D" id=5]
_data = {
"points": PoolVector3Array( 0, 0, 0, 0, 0, 0, -13.0349, 0, -14.9983, 0, 0, 0, 0, 0, 0, 13.0579, 0, -15.0433, 0, 0, 0, 0, 0, 0, 13.0059, 0, 14.9452, 0, 0, 0, 0, 0, 0, -12.9969, 0, 14.9452, 0, 0, 0, 0, 0, 0, -13.0349, 0, -14.9983 ),
"tilts": PoolRealArray( 0, 0, 0, 0, 0 )
}

[sub_resource type="DynamicFont" id=6]
size = 22
font_data = ExtResource( 5 )

[sub_resource type="Theme" id=7]
default_font = SubResource( 6 )

[node name="Main" type="Node"]
script = ExtResource( 3 )
mob_scene = ExtResource( 2 )

[node name="Ground" type="StaticBody" parent="."]
transform = Transform( 1, 0, 0, 0, 1, 0, 0, 0, 1, 0, -2, 0 )
collision_layer = 4
collision_mask = 0

[node name="CollisionShape" type="CollisionShape" parent="Ground"]
shape = SubResource( 1 )

[node name="MeshInstance" type="MeshInstance" parent="Ground"]
mesh = SubResource( 2 )
material/0 = null

[node name="DirectionalLight" type="DirectionalLight" parent="."]
transform = Transform( 1, 0, 0, 0, 0.5, 0.866025, 0, -0.866025, 0.5, 0, 10, 0 )
shadow_enabled = true

[node name="Player" parent="." instance=ExtResource( 1 )]
transform = Transform( 1, 0, 0, 0, 1, 0, 0, 0, 1, 0, -1, 0 )

[node name="CameraPivot" type="Position3D" parent="."]
transform = Transform( 1, 0, 0, 0, 0.707107, 0.707107, 0, -0.707107, 0.707107, 0, 19, 19 )

[node name="Camera" type="Camera" parent="CameraPivot"]
projection = 1
size = 19.0

[node name="Cylinders" type="Spatial" parent="."]
visible = false

[node name="MeshInstance" type="MeshInstance" parent="Cylinders"]
transform = Transform( 1, 0, 0, 0, 1, 0, 0, 0, 1, -13, 0, -15 )
mesh = SubResource( 3 )
material/0 = SubResource( 4 )

[node name="MeshInstance2" type="MeshInstance" parent="Cylinders"]
transform = Transform( 1, 0, 0, 0, 1, 0, 0, 0, 1, 13, 0, -15 )
mesh = SubResource( 3 )
material/0 = SubResource( 4 )

[node name="MeshInstance4" type="MeshInstance" parent="Cylinders"]
transform = Transform( 1, 0, 0, 0, 1, 0, 0, 0, 1, 13, 0, 15 )
mesh = SubResource( 3 )
material/0 = SubResource( 4 )

[node name="MeshInstance5" type="MeshInstance" parent="Cylinders"]
transform = Transform( 1, 0, 0, 0, 1, 0, 0, 0, 1, -13, 0, 15 )
mesh = SubResource( 3 )
material/0 = SubResource( 4 )

[node name="SpawnPath" type="Path" parent="."]
curve = SubResource( 5 )

[node name="SpawnLocation" type="PathFollow" parent="SpawnPath"]
transform = Transform( 1, 0, 0, 0, 1, 0, 0, 0, 1, -13.0349, 0, -14.9983 )

[node name="MobTimer" type="Timer" parent="."]
wait_time = 0.5
autostart = true

[node name="UserInterface" type="Control" parent="."]
anchor_right = 1.0
anchor_bottom = 1.0
theme = SubResource( 7 )
__meta__ = {
"_edit_use_anchors_": false
}

[node name="ScoreLabel" type="Label" parent="UserInterface"]
margin_left = 19.0818
margin_top = 25.8166
margin_right = 70.0818
margin_bottom = 39.8166
custom_colors/font_color = Color( 0.231373, 0.2, 0.258824, 1 )
text = "Score: 0"
script = ExtResource( 4 )

[node name="Retry" type="ColorRect" parent="UserInterface"]
anchor_right = 1.0
anchor_bottom = 1.0
color = Color( 0, 0, 0, 0.470588 )
__meta__ = {
"_edit_use_anchors_": false
}

[node name="Label" type="Label" parent="UserInterface/Retry"]
anchor_left = 0.5
anchor_top = 0.5
anchor_right = 0.5
anchor_bottom = 0.5
margin_left = -107.0
margin_top = -14.0
margin_right = 107.0
margin_bottom = 14.0
text = "Press Enter to retry"

[connection signal="hit" from="Player" to="." method="_on_Player_hit"]
[connection signal="timeout" from="MobTimer" to="." method="_on_MobTimer_timeout"]
