[gd_scene load_steps=5 format=2]

[ext_resource path="res://art/mob.glb" type="PackedScene" id=1]
[ext_resource path="res://mob.gd" type="Script" id=2]

[sub_resource type="BoxShape" id=4]
extents = Vector3( 0.736665, 1, 0.908299 )

[sub_resource type="Animation" id=3]
resource_name = "float"
length = 1.2
loop = true
tracks/0/type = "value"
tracks/0/path = NodePath("Pivot/Character:translation")
tracks/0/interp = 1
tracks/0/loop_wrap = true
tracks/0/imported = false
tracks/0/enabled = true
tracks/0/keys = {
"times": PoolRealArray( 0.2, 0.7, 1.2 ),
"transitions": PoolRealArray( 0.406127, 1.56917, 0.999998 ),
"update": 0,
"values": [ Vector3( 0.168264, 0, 0 ), Vector3( 0.168, 0.65, 0 ), Vector3( 0.168, 0.35, 0 ) ]
}
tracks/1/type = "value"
tracks/1/path = NodePath("Pivot/Character:rotation_degrees")
tracks/1/interp = 1
tracks/1/loop_wrap = true
tracks/1/imported = false
tracks/1/enabled = true
tracks/1/keys = {
"times": PoolRealArray( 0.1, 0.5, 1.2 ),
"transitions": PoolRealArray( 0.406127, 0.554785, 0.999998 ),
"update": 0,
"values": [ Vector3( 0, 0, 0 ), Vector3( 8, 0, 0 ), Vector3( -9, 0, 0 ) ]
}

[node name="Mob" type="KinematicBody" groups=[
"mob",
]]
collision_layer = 2
collision_mask = 0
script = ExtResource( 2 )

[node name="Pivot" type="Spatial" parent="."]

[node name="Character" parent="Pivot" instance=ExtResource( 1 )]

[node name="CollisionShape" type="CollisionShape" parent="."]
shape = SubResource( 4 )

[node name="VisibilityNotifier" type="VisibilityNotifier" parent="."]
aabb = AABB( -1.23829, -1, -1.96251, 2.47658, 2, 3.92502 )

[node name="AnimationPlayer" type="AnimationPlayer" parent="."]
autoplay = "float"
anims/float = SubResource( 3 )

[connection signal="screen_exited" from="VisibilityNotifier" to="." method="_on_VisibilityNotifier_screen_exited"]
