[gd_scene load_steps=6 format=2]

[ext_resource path="res://art/player.glb" type="PackedScene" id=1]
[ext_resource path="res://player.gd" type="Script" id=2]

[sub_resource type="SphereShape" id=1]
radius = 0.79946

[sub_resource type="CylinderShape" id=2]
radius = 1.00958
height = 0.104272

[sub_resource type="Animation" id=3]
resource_name = "float"
length = 1.2
loop = true
tracks/0/type = "value"
tracks/0/path = NodePath("Pivot/Character:translation")
tracks/0/interp = 1
tracks/0/loop_wrap = true
tracks/0/imported = false
tracks/0/enabled = true
tracks/0/keys = {
"times": PoolRealArray( 0.2, 0.7, 1.2 ),
"transitions": PoolRealArray( 0.406127, 1.56917, 0.999998 ),
"update": 0,
"values": [ Vector3( 0.168264, 0, 0 ), Vector3( 0.168, 0.65, 0 ), Vector3( 0.168, 0.35, 0 ) ]
}
tracks/1/type = "value"
tracks/1/path = NodePath("Pivot/Character:rotation_degrees")
tracks/1/interp = 1
tracks/1/loop_wrap = true
tracks/1/imported = false
tracks/1/enabled = true
tracks/1/keys = {
"times": PoolRealArray( 0.1, 0.5, 1.2 ),
"transitions": PoolRealArray( 0.406127, 0.554785, 0.999998 ),
"update": 0,
"values": [ Vector3( 0, 0, 0 ), Vector3( 8, 0, 0 ), Vector3( -9, 0, 0 ) ]
}

[node name="Player" type="KinematicBody"]
collision_mask = 6
script = ExtResource( 2 )

[node name="Pivot" type="Spatial" parent="."]
transform = Transform( 1, 0, 0, 0, 1, 0, 0, 0, 1, 0, 0.234425, 0 )

[node name="Character" parent="Pivot" instance=ExtResource( 1 )]
transform = Transform( 1, 0, 0, 0, 0.997713, -0.0675955, 0, 0.0675955, 0.997713, 0.168005, 0.637645, 0 )

[node name="CollisionShape" type="CollisionShape" parent="."]
transform = Transform( 1, 0, 0, 0, 1, 0, 0, 0, 1, 0, 0.8, 0 )
shape = SubResource( 1 )

[node name="MobDetector" type="Area" parent="."]
collision_layer = 0
collision_mask = 2

[node name="CollisionShape" type="CollisionShape" parent="MobDetector"]
transform = Transform( 1, 0, 0, 0, 1, 0, 0, 0, 1, 0, 0.567236, 0 )
shape = SubResource( 2 )

[node name="AnimationPlayer" type="AnimationPlayer" parent="."]
autoplay = "float"
anims/float = SubResource( 3 )

[connection signal="body_entered" from="MobDetector" to="." method="_on_MobDetector_body_entered"]
